﻿<error errorId="62d6740e-836d-42d7-adbf-90eb4973e4c1" application="/LM/W3SVC/10/ROOT" host="OBSIDIAN" type="System.InvalidOperationException" message="Sequence contains no elements" source="System.Core" detail="System.InvalidOperationException: Sequence contains no elements&#xD;&#xA;   at System.Linq.Enumerable.Single[TSource](IEnumerable`1 source)&#xD;&#xA;   at System.Data.Objects.ELinq.ObjectQueryProvider.&lt;GetElementFunction&gt;b__3[TResult](IEnumerable`1 sequence)&#xD;&#xA;   at System.Data.Objects.ELinq.ObjectQueryProvider.ExecuteSingle[TResult](IEnumerable`1 query, Expression queryRoot)&#xD;&#xA;   at System.Data.Objects.ELinq.ObjectQueryProvider.System.Linq.IQueryProvider.Execute[S](Expression expression)&#xD;&#xA;   at System.Data.Entity.Internal.Linq.DbQueryProvider.Execute[TResult](Expression expression)&#xD;&#xA;   at System.Linq.Queryable.Single[TSource](IQueryable`1 source)&#xD;&#xA;   at LANREG.Controllers.OrganizationController.Details(String url_param) in c:\Users\Charles\My Projects\GIT\LANREG2\LANREG\Controllers\OrganizationController.cs:line 31&#xD;&#xA;   at lambda_method(Closure , ControllerBase , Object[] )&#xD;&#xA;   at System.Web.Mvc.ActionMethodDispatcher.Execute(ControllerBase controller, Object[] parameters)&#xD;&#xA;   at System.Web.Mvc.ReflectedActionDescriptor.Execute(ControllerContext controllerContext, IDictionary`2 parameters)&#xD;&#xA;   at System.Web.Mvc.ControllerActionInvoker.InvokeActionMethod(ControllerContext controllerContext, ActionDescriptor actionDescriptor, IDictionary`2 parameters)&#xD;&#xA;   at System.Web.Mvc.Async.AsyncControllerActionInvoker.&lt;&gt;c__DisplayClass42.&lt;BeginInvokeSynchronousActionMethod&gt;b__41()&#xD;&#xA;   at System.Web.Mvc.Async.AsyncResultWrapper.&lt;&gt;c__DisplayClass8`1.&lt;BeginSynchronous&gt;b__7(IAsyncResult _)&#xD;&#xA;   at System.Web.Mvc.Async.AsyncResultWrapper.WrappedAsyncResult`1.End()&#xD;&#xA;   at System.Web.Mvc.Async.AsyncControllerActionInvoker.EndInvokeActionMethod(IAsyncResult asyncResult)&#xD;&#xA;   at System.Web.Mvc.Async.AsyncControllerActionInvoker.&lt;&gt;c__DisplayClass37.&lt;&gt;c__DisplayClass39.&lt;BeginInvokeActionMethodWithFilters&gt;b__33()&#xD;&#xA;   at System.Web.Mvc.Async.AsyncControllerActionInvoker.&lt;&gt;c__DisplayClass4f.&lt;InvokeActionMethodFilterAsynchronously&gt;b__49()&#xD;&#xA;   at System.Web.Mvc.Async.AsyncControllerActionInvoker.&lt;&gt;c__DisplayClass37.&lt;BeginInvokeActionMethodWithFilters&gt;b__36(IAsyncResult asyncResult)&#xD;&#xA;   at System.Web.Mvc.Async.AsyncResultWrapper.WrappedAsyncResult`1.End()&#xD;&#xA;   at System.Web.Mvc.Async.AsyncControllerActionInvoker.EndInvokeActionMethodWithFilters(IAsyncResult asyncResult)&#xD;&#xA;   at System.Web.Mvc.Async.AsyncControllerActionInvoker.&lt;&gt;c__DisplayClass25.&lt;&gt;c__DisplayClass2a.&lt;BeginInvokeAction&gt;b__20()&#xD;&#xA;   at System.Web.Mvc.Async.AsyncControllerActionInvoker.&lt;&gt;c__DisplayClass25.&lt;BeginInvokeAction&gt;b__22(IAsyncResult asyncResult)&#xD;&#xA;   at System.Web.Mvc.Async.AsyncResultWrapper.WrappedAsyncResult`1.End()&#xD;&#xA;   at System.Web.Mvc.Async.AsyncControllerActionInvoker.EndInvokeAction(IAsyncResult asyncResult)&#xD;&#xA;   at System.Web.Mvc.Controller.&lt;&gt;c__DisplayClass1d.&lt;BeginExecuteCore&gt;b__18(IAsyncResult asyncResult)&#xD;&#xA;   at System.Web.Mvc.Async.AsyncResultWrapper.&lt;&gt;c__DisplayClass4.&lt;MakeVoidDelegate&gt;b__3(IAsyncResult ar)&#xD;&#xA;   at System.Web.Mvc.Async.AsyncResultWrapper.WrappedAsyncResult`1.End()&#xD;&#xA;   at System.Web.Mvc.Controller.EndExecuteCore(IAsyncResult asyncResult)&#xD;&#xA;   at System.Web.Mvc.Async.AsyncResultWrapper.&lt;&gt;c__DisplayClass4.&lt;MakeVoidDelegate&gt;b__3(IAsyncResult ar)&#xD;&#xA;   at System.Web.Mvc.Async.AsyncResultWrapper.WrappedAsyncResult`1.End()&#xD;&#xA;   at System.Web.Mvc.Controller.EndExecute(IAsyncResult asyncResult)&#xD;&#xA;   at System.Web.Mvc.Controller.System.Web.Mvc.Async.IAsyncController.EndExecute(IAsyncResult asyncResult)&#xD;&#xA;   at System.Web.Mvc.MvcHandler.&lt;&gt;c__DisplayClass8.&lt;BeginProcessRequest&gt;b__3(IAsyncResult asyncResult)&#xD;&#xA;   at System.Web.Mvc.Async.AsyncResultWrapper.&lt;&gt;c__DisplayClass4.&lt;MakeVoidDelegate&gt;b__3(IAsyncResult ar)&#xD;&#xA;   at System.Web.Mvc.Async.AsyncResultWrapper.WrappedAsyncResult`1.End()&#xD;&#xA;   at System.Web.Mvc.MvcHandler.EndProcessRequest(IAsyncResult asyncResult)&#xD;&#xA;   at System.Web.Mvc.MvcHandler.System.Web.IHttpAsyncHandler.EndProcessRequest(IAsyncResult result)&#xD;&#xA;   at System.Web.HttpApplication.CallHandlerExecutionStep.System.Web.HttpApplication.IExecutionStep.Execute()&#xD;&#xA;   at System.Web.HttpApplication.ExecuteStep(IExecutionStep step, Boolean&amp; completedSynchronously)" time="2012-09-19T01:12:16.7960282Z">
  <serverVariables>
    <item name="ALL_HTTP">
      <value string="HTTP_CACHE_CONTROL:max-age=0&#xD;&#xA;HTTP_CONNECTION:keep-alive&#xD;&#xA;HTTP_ACCEPT:text/html,application/xhtml+xml,application/xml;q=0.9,*/*;q=0.8&#xD;&#xA;HTTP_ACCEPT_ENCODING:gzip, deflate&#xD;&#xA;HTTP_ACCEPT_LANGUAGE:en-us,en;q=0.5&#xD;&#xA;HTTP_HOST:localhost:62775&#xD;&#xA;HTTP_USER_AGENT:Mozilla/5.0 (Windows NT 6.1; WOW64; rv:15.0) Gecko/20100101 Firefox/15.0.1&#xD;&#xA;" />
    </item>
    <item name="ALL_RAW">
      <value string="Cache-Control: max-age=0&#xD;&#xA;Connection: keep-alive&#xD;&#xA;Accept: text/html,application/xhtml+xml,application/xml;q=0.9,*/*;q=0.8&#xD;&#xA;Accept-Encoding: gzip, deflate&#xD;&#xA;Accept-Language: en-us,en;q=0.5&#xD;&#xA;Host: localhost:62775&#xD;&#xA;User-Agent: Mozilla/5.0 (Windows NT 6.1; WOW64; rv:15.0) Gecko/20100101 Firefox/15.0.1&#xD;&#xA;" />
    </item>
    <item name="APPL_MD_PATH">
      <value string="/LM/W3SVC/10/ROOT" />
    </item>
    <item name="APPL_PHYSICAL_PATH">
      <value string="C:\Users\Charles\My Projects\GIT\LANREG2\LANREG\" />
    </item>
    <item name="AUTH_TYPE">
      <value string="" />
    </item>
    <item name="AUTH_USER">
      <value string="" />
    </item>
    <item name="AUTH_PASSWORD">
      <value string="*****" />
    </item>
    <item name="LOGON_USER">
      <value string="" />
    </item>
    <item name="REMOTE_USER">
      <value string="" />
    </item>
    <item name="CERT_COOKIE">
      <value string="" />
    </item>
    <item name="CERT_FLAGS">
      <value string="" />
    </item>
    <item name="CERT_ISSUER">
      <value string="" />
    </item>
    <item name="CERT_KEYSIZE">
      <value string="" />
    </item>
    <item name="CERT_SECRETKEYSIZE">
      <value string="" />
    </item>
    <item name="CERT_SERIALNUMBER">
      <value string="" />
    </item>
    <item name="CERT_SERVER_ISSUER">
      <value string="" />
    </item>
    <item name="CERT_SERVER_SUBJECT">
      <value string="" />
    </item>
    <item name="CERT_SUBJECT">
      <value string="" />
    </item>
    <item name="CONTENT_LENGTH">
      <value string="0" />
    </item>
    <item name="CONTENT_TYPE">
      <value string="" />
    </item>
    <item name="GATEWAY_INTERFACE">
      <value string="CGI/1.1" />
    </item>
    <item name="HTTPS">
      <value string="off" />
    </item>
    <item name="HTTPS_KEYSIZE">
      <value string="" />
    </item>
    <item name="HTTPS_SECRETKEYSIZE">
      <value string="" />
    </item>
    <item name="HTTPS_SERVER_ISSUER">
      <value string="" />
    </item>
    <item name="HTTPS_SERVER_SUBJECT">
      <value string="" />
    </item>
    <item name="INSTANCE_ID">
      <value string="10" />
    </item>
    <item name="INSTANCE_META_PATH">
      <value string="/LM/W3SVC/10" />
    </item>
    <item name="LOCAL_ADDR">
      <value string="::1" />
    </item>
    <item name="PATH_INFO">
      <value string="/test" />
    </item>
    <item name="PATH_TRANSLATED">
      <value string="C:\Users\Charles\My Projects\GIT\LANREG2\LANREG\test" />
    </item>
    <item name="QUERY_STRING">
      <value string="" />
    </item>
    <item name="REMOTE_ADDR">
      <value string="::1" />
    </item>
    <item name="REMOTE_HOST">
      <value string="::1" />
    </item>
    <item name="REMOTE_PORT">
      <value string="60689" />
    </item>
    <item name="REQUEST_METHOD">
      <value string="GET" />
    </item>
    <item name="SCRIPT_NAME">
      <value string="/test" />
    </item>
    <item name="SERVER_NAME">
      <value string="localhost" />
    </item>
    <item name="SERVER_PORT">
      <value string="62775" />
    </item>
    <item name="SERVER_PORT_SECURE">
      <value string="0" />
    </item>
    <item name="SERVER_PROTOCOL">
      <value string="HTTP/1.1" />
    </item>
    <item name="SERVER_SOFTWARE">
      <value string="Microsoft-IIS/8.0" />
    </item>
    <item name="URL">
      <value string="/test" />
    </item>
    <item name="HTTP_CACHE_CONTROL">
      <value string="max-age=0" />
    </item>
    <item name="HTTP_CONNECTION">
      <value string="keep-alive" />
    </item>
    <item name="HTTP_ACCEPT">
      <value string="text/html,application/xhtml+xml,application/xml;q=0.9,*/*;q=0.8" />
    </item>
    <item name="HTTP_ACCEPT_ENCODING">
      <value string="gzip, deflate" />
    </item>
    <item name="HTTP_ACCEPT_LANGUAGE">
      <value string="en-us,en;q=0.5" />
    </item>
    <item name="HTTP_HOST">
      <value string="localhost:62775" />
    </item>
    <item name="HTTP_USER_AGENT">
      <value string="Mozilla/5.0 (Windows NT 6.1; WOW64; rv:15.0) Gecko/20100101 Firefox/15.0.1" />
    </item>
  </serverVariables>
</error>